<svg xmlns="http://www.w3.org/2000/svg" width="52" height="52" viewBox="0 0 52 52">
  <g fill="#4EC500">
    <path d="M51.1702344,0 L0.829765625,0 C0.371414062,0 0,0.371414062 0,0.829765625 L0,51.1702344 C0,51.6285859 0.371414062,52 0.829765625,52 L51.1702344,52 C51.6285859,52 52,51.6285859 52,51.1702344 L52,0.829765625 C52,0.371414062 51.6285859,0 51.1702344,0 Z M50.3404687,50.3404687 L1.65953125,50.3404687 L1.65953125,1.65953125 L50.3404687,1.65953125 L50.3404687,50.3404687 Z"/>
    <path d="M47.1768502 3L3.82314984 3C3.36845275 3 3 3.37300341 3 3.83331633L3 7.16668367C3 7.62699659 3.36845275 8 3.82314984 8L47.1768502 8C47.6315472 8 48 7.62699659 48 7.16668367L48 3.83331633C48 3.37300341 47.6315472 3 47.1768502 3zM46.3537003 6.33336733L4.64629969 6.33336733 4.64629969 4.66673466 46.3535996 4.66673466 46.3535996 6.33336733 46.3537003 6.33336733zM47.1768502 35L3.82314984 35C3.36845275 35 3 35.3688008 3 35.8239273L3 47.1760727C3 47.6311992 3.36845275 48 3.82314984 48L47.1768502 48C47.6315472 48 48 47.6311992 48 47.1760727L48 35.8239273C48 35.3688008 47.6315472 35 47.1768502 35zM46.3537003 46.3521453L4.64629969 46.3521453 4.64629969 36.6478547 46.3535996 36.6478547 46.3535996 46.3521453 46.3537003 46.3521453zM32.1709679 10L19.8289307 10C19.3710403 10 19 10.3710376 19 10.8289247L19 23.1710753C19 23.6289624 19.3710403 24 19.8289307 24L32.1710693 24C32.6289597 24 33 23.6289624 33 23.1710753L33 10.8289247C33 10.3710376 32.6289597 10 32.1709679 10zM30.1695619 11.6578493L25.9999493 15.8275332 21.8302352 11.6578493 30.1695619 11.6578493 30.1695619 11.6578493zM20.6578614 12.8302147L24.8275755 16.9998985 20.6578614 21.1695824 20.6578614 12.8302147zM21.8303366 22.3420492L25.9999493 18.1723653 30.1696634 22.3420492 21.8303366 22.3420492 21.8303366 22.3420492zM31.3420372 21.1695824L27.1723231 16.9998985 31.3420372 12.8302147 31.3420372 21.1695824zM47.1710753 10L34.8289247 10C34.3710376 10 34 10.3710376 34 10.8289247L34 23.1710753C34 23.6289624 34.3710376 24 34.8289247 24L47.1710753 24C47.6289624 24 48 23.6289624 48 23.1710753L48 10.8289247C48 10.3710376 47.6289624 10 47.1710753 10zM45.1696839 11.6578493L41 15.8275332 36.8303161 11.6578493 45.1696839 11.6578493 45.1696839 11.6578493zM35.6578493 12.8302147L39.8275332 16.9998985 35.6578493 21.1695824 35.6578493 12.8302147zM36.8302147 22.3420492L41 18.1723653 45.1696839 22.3420492 36.8302147 22.3420492zM46.3421507 21.1695824L42.1724668 16.9998985 46.3421507 12.8302147 46.3421507 21.1695824zM32.1709679 26L19.8289307 26C19.3710403 26 19 26.4476132 19 27 19 27.5523868 19.3710403 28 19.8289307 28L32.1710693 28C32.6289597 28 33 27.5523868 33 27 33 26.4476132 32.6289597 26 32.1709679 26zM47.1710753 26L34.8289247 26C34.3710376 26 34 26.4476132 34 27 34 27.5523868 34.3710376 28 34.8289247 28L47.1710753 28C47.6289624 28 48 27.5523868 48 27 48 26.4476132 47.6289624 26 47.1710753 26zM16.1710753 26L3.82892467 26C3.37103764 26 3 26.4476132 3 27 3 27.5523868 3.37103764 28 3.82892467 28L16.1710753 28C16.6289624 28 17 27.5523868 17 27 17 26.4476132 16.6289624 26 16.1710753 26zM32.1709679 29L19.8289307 29C19.3710403 29 19 29.4476132 19 30 19 30.5523868 19.3710403 31 19.8289307 31L32.1710693 31C32.6289597 31 33 30.5523868 33 30 33 29.4476132 32.6289597 29 32.1709679 29zM47.1710753 29L34.8289247 29C34.3710376 29 34 29.4476132 34 30 34 30.5523868 34.3710376 31 34.8289247 31L47.1710753 31C47.6289624 31 48 30.5523868 48 30 48 29.4476132 47.6289624 29 47.1710753 29zM16.1710753 29L3.82892467 29C3.37103764 29 3 29.4476132 3 30 3 30.5523868 3.37103764 31 3.82892467 31L16.1710753 31C16.6289624 31 17 30.5523868 17 30 17 29.4476132 16.6289624 29 16.1710753 29zM26.1549441 32L19.8450559 32C19.3782582 32 19 32.4476132 19 33 19 33.5523868 19.3782582 34 19.8450559 34L26.1549441 34C26.6217418 34 27 33.5523868 27 33 27 32.4476132 26.6217418 32 26.1549441 32zM41.1549441 32L34.8450559 32C34.3782582 32 34 32.4476132 34 33 34 33.5523868 34.3782582 34 34.8450559 34L41.1549441 34C41.6217418 34 42 33.5523868 42 33 42 32.4476132 41.6218453 32 41.1549441 32zM10.1549441 32L3.84505585 32C3.37825817 32 3 32.4476132 3 33 3 33.5523868 3.37825817 34 3.84505585 34L10.1549441 34C10.6217418 34 11 33.5523868 11 33 11 32.4476132 10.6218453 32 10.1549441 32zM16.1710753 10L3.82892467 10C3.37103764 10 3 10.3710376 3 10.8289247L3 23.1710753C3 23.6289624 3.37103764 24 3.82892467 24L16.1710753 24C16.6289624 24 17 23.6289624 17 23.1710753L17 10.8289247C17 10.3710376 16.6289624 10 16.1710753 10zM14.1696839 11.6578493L10 15.8275332 5.83031612 11.6578493 14.1696839 11.6578493 14.1696839 11.6578493zM4.65784935 12.8303161L8.82753323 16.9998985 4.65784935 21.1696839 4.65784935 12.8303161zM5.83021466 22.3420492L9.99989854 18.1723653 14.1696839 22.3420492 5.83021466 22.3420492zM15.3421507 21.1695824L11.1724668 16.9998985 15.3421507 12.8302147 15.3421507 21.1695824z"/>
  </g>
</svg>
